<svg width="16" height="20" viewBox="0 0 16 20" fill="none" xmlns="http://www.w3.org/2000/svg">
<path d="M15.1665 2.41668C14.9862 2.3118 14.7634 2.3118 14.5832 2.41668C13.8848 2.8041 13.0984 3.005 12.2998 3C11.1322 3.02582 10.0032 2.58145 9.16652 1.76668C8.20058 0.821172 6.89457 0.304531 5.5432 0.333359C4.45488 0.323945 3.39082 0.654922 2.49988 1.28004V1C2.49988 0.447734 2.05218 0 1.49988 0C0.947573 0 0.499878 0.447695 0.499878 1V19C0.499878 19.5523 0.947573 20 1.49988 20C2.05214 20 2.49988 19.5523 2.49988 19V10.3333C2.61035 10.323 2.71558 10.2814 2.8032 10.2133C3.59625 9.6293 4.55839 9.32031 5.5432 9.33332C6.71296 9.30645 7.84441 9.75086 8.6832 10.5666C9.6473 11.5108 10.9507 12.0273 12.2999 12C13.3338 12.012 14.348 11.7161 15.2132 11.15C15.3984 11.0216 15.5062 10.8085 15.4999 10.5833V3C15.502 2.75969 15.3746 2.53684 15.1665 2.41668Z" fill="#27313A"/>
</svg>
