<svg width="60" height="60" viewBox="0 0 60 60" fill="none" xmlns="http://www.w3.org/2000/svg">
<path d="M36.3328 14.9673L39.2085 19.3735L35.0765 21.6048L32.4421 17.3228L36.3328 14.9673Z" fill="#FFB3D0"/>
<path d="M32.3401 24.7988H18.2776L19.6875 37.0312L2.8125 45L6.76769 52.9101C6.78962 52.954 6.82476 52.9899 6.86816 53.0127C6.91156 53.0356 6.96104 53.0442 7.00962 53.0375C7.0582 53.0307 7.10343 53.0089 7.13895 52.9751C7.17447 52.9412 7.19849 52.8971 7.20762 52.8489L7.83445 49.542L23.4023 41.9144C24.2567 41.4958 24.9635 40.8271 25.4287 39.9972C25.8939 39.1673 26.0956 38.2154 26.007 37.2682L25.4541 31.3619H28.9665L33.75 40.3125L29.4141 57.1875H38.6698C38.719 57.1875 38.7669 57.172 38.8068 57.1432C38.8467 57.1145 38.8766 57.0739 38.8921 57.0272C38.9077 56.9805 38.9081 56.9302 38.8935 56.8832C38.8788 56.8363 38.8497 56.7951 38.8104 56.7656L36.2578 54.8581L39.4912 42.2469C39.8425 40.8768 39.6863 39.426 39.0516 38.1621L32.3401 24.7988Z" fill="#223448"/>
<path d="M36.3328 14.9669L32.7867 9.53291C32.4673 9.04328 32.0309 8.64101 31.5169 8.36253C31.0029 8.08404 30.4275 7.93813 29.8429 7.93799L15.2133 7.92041C14.4924 7.91934 13.7886 8.13991 13.1972 8.55223C12.6059 8.96455 12.1556 9.54869 11.9074 10.2255L9.5238 16.7212L9.5906 16.7458L13.9746 18.2048L16.1786 12.2048L18.2776 24.7981H32.3401L30.5912 14.314L32.4422 17.3224L36.3328 14.9669Z" fill="#D7A333"/>
<path d="M57.7323 7.34401L52.5445 4.02644C51.6512 3.45483 50.6495 3.07379 49.6021 2.90719C48.5547 2.74059 47.4843 2.792 46.4577 3.05821C45.4311 3.32443 44.4706 3.79971 43.6362 4.4543C42.8018 5.10889 42.1115 5.92869 41.6085 6.86237C40.4275 9.0534 38.8738 11.0219 37.0171 12.6796C35.1606 14.3375 33.0295 15.6596 30.7195 16.5866L4.06516 27.2823C3.06733 27.6826 2.2694 28.4629 1.84689 29.4515C1.42439 30.4402 1.41192 31.5562 1.81223 32.554C2.21254 33.5518 2.99284 34.3497 3.98147 34.7722C4.9701 35.1947 6.08608 35.2072 7.08391 34.8069L32.5312 24.5952C38.0637 22.3756 44.037 21.4745 49.9781 21.9632L49.7144 10.4202L51.5085 9.3362L58.7085 9.62448C58.7361 9.48516 58.7498 9.34346 58.7495 9.20144C58.7495 8.83133 58.6564 8.46718 58.4786 8.14257C58.3008 7.81796 58.0442 7.54333 57.7323 7.34401ZM6.07727 32.2991C5.8293 32.3984 5.55744 32.422 5.29607 32.3669C5.0347 32.3117 4.79554 32.1803 4.60882 31.9893C4.42211 31.7983 4.29622 31.5562 4.24707 31.2936C4.19791 31.031 4.2277 30.7598 4.33267 30.5142C4.43764 30.2685 4.61308 30.0595 4.8368 29.9136C5.06053 29.7676 5.3225 29.6913 5.58961 29.6942C5.85672 29.6971 6.11698 29.7791 6.33748 29.9299C6.55798 30.0807 6.72883 30.2934 6.82844 30.5413C6.89466 30.706 6.92775 30.8822 6.92583 31.0597C6.92391 31.2372 6.88701 31.4126 6.81724 31.5759C6.74748 31.7392 6.64621 31.8871 6.51924 32.0112C6.39227 32.1352 6.24208 32.2331 6.07727 32.2991Z" fill="#B3B2AD"/>
<path d="M17.7938 30.2399C17.7998 30.2633 17.8029 30.2873 17.8032 30.3114C17.8032 30.369 17.7858 30.4253 17.7535 30.473C17.7211 30.5206 17.6751 30.5574 17.6215 30.5786L16.3512 31.0884C16.3734 31.1653 16.3848 31.245 16.3852 31.3251C16.3849 31.4971 16.3329 31.6651 16.2359 31.8072C16.139 31.9493 16.0015 32.0589 15.8415 32.122L13.0641 33.2188C12.9528 33.2628 12.8335 33.283 12.7139 33.2781C12.5943 33.2732 12.4771 33.2433 12.3698 33.1903C12.2625 33.1373 12.1675 33.0624 12.0909 32.9704C12.0143 32.8784 11.9578 32.7715 11.925 32.6563L8.62857 21.1216C8.42476 20.406 8.45266 19.6442 8.70825 18.9454L9.52388 16.7212L9.59068 16.7458L13.9747 18.2048L13.2411 20.2017L15.934 29.627L17.5829 30.0302C17.6338 30.0426 17.6803 30.0688 17.7175 30.1057C17.7546 30.1427 17.781 30.1891 17.7938 30.2399Z" fill="#FFD3B3"/>
<path d="M44.3891 20.625H47.4858C47.5902 20.625 47.6937 20.6455 47.7902 20.6855C47.8867 20.7255 47.9744 20.7841 48.0483 20.8579C48.1221 20.9318 48.1807 21.0195 48.2207 21.116C48.2607 21.2125 48.2812 21.3159 48.2812 21.4204V22.2862C48.2812 22.5916 48.16 22.8844 47.9441 23.1003C47.7282 23.3162 47.4353 23.4375 47.13 23.4375H44.745C44.4397 23.4375 44.1468 23.3162 43.9309 23.1003C43.715 22.8844 43.5938 22.5916 43.5938 22.2862V21.4204C43.5938 21.2094 43.6775 21.0071 43.8267 20.858C43.9759 20.7088 44.1782 20.625 44.3891 20.625Z" fill="#FFD3B3"/>
<path d="M49.978 21.9629C51.9458 22.131 53.9258 21.8418 55.7634 21.1179L56.9411 20.654C57.5885 20.399 58.1404 19.9486 58.52 19.3655C58.8996 18.7824 59.0882 18.0956 59.0594 17.4004L51.7019 17.4138L49.8503 16.3599L49.978 21.9629Z" fill="#D6D7D2"/>
<path d="M43.704 13.0594L43.8258 18.3894C43.8277 18.4728 43.8466 18.5549 43.8814 18.6307C43.9163 18.7064 43.9662 18.7743 44.0283 18.83C44.0903 18.8857 44.1631 18.9281 44.2422 18.9547C44.3213 18.9812 44.4049 18.9912 44.488 18.9842L46.4854 18.8152C46.6403 18.8021 46.7844 18.7304 46.8883 18.6147C46.9922 18.499 47.048 18.348 47.0445 18.1926L46.9238 12.9089C46.9219 12.8268 46.9035 12.7458 46.8696 12.6709C46.8357 12.5961 46.787 12.5288 46.7265 12.4732C46.666 12.4175 46.5949 12.3747 46.5174 12.3472C46.44 12.3197 46.3577 12.3081 46.2757 12.3132L44.2773 12.436C44.1197 12.4456 43.9719 12.5159 43.865 12.6322C43.7581 12.7484 43.7004 12.9015 43.704 13.0594Z" fill="#D6D7D2"/>
<path d="M23.4766 4.56551L23.9599 8.41488C23.9901 8.65592 23.9234 8.8991 23.7744 9.09093C23.6253 9.28276 23.4062 9.40753 23.1651 9.43781C23.0455 9.45281 22.9241 9.44405 22.8079 9.41204C22.6917 9.38003 22.5829 9.32539 22.4879 9.25126C22.3928 9.17713 22.3133 9.08497 22.2539 8.98006C22.1946 8.87514 22.1565 8.75954 22.1419 8.63988L21.6327 4.4707L23.4766 4.56551Z" fill="#FFD3B3"/>
<path d="M23.8312 7.38961L23.7961 7.39066C23.451 7.39227 23.117 7.26896 22.8558 7.0435C22.5945 6.81804 22.4237 6.50566 22.3748 6.16406L22.2656 5.40234L23.6561 5.99707L23.8312 7.38961Z" fill="#F4C7A6"/>
<path d="M22.0352 2.8335L24.8477 2.83631L24.8451 5.41444C24.8449 5.56833 24.8145 5.72068 24.7554 5.8628C24.6964 6.00492 24.6099 6.13402 24.501 6.24273C24.3921 6.35144 24.2628 6.43763 24.1206 6.49638C23.9783 6.55513 23.8259 6.58529 23.672 6.58514C23.2369 6.5847 22.8198 6.41144 22.5124 6.10345C22.205 5.79547 22.0326 5.37799 22.033 4.94287L22.0352 2.8335Z" fill="#FFD3B3"/>
<path d="M24.7396 0.970703H24.52C24.1558 0.971037 23.8 1.079 23.497 1.28102C23.1928 1.4838 22.8352 1.59175 22.4695 1.59121C22.2894 1.59096 22.111 1.6262 21.9444 1.69492C21.7779 1.76363 21.6265 1.86447 21.499 1.99167C21.3714 2.11888 21.2702 2.26997 21.201 2.43631C21.1318 2.60265 21.0961 2.78099 21.0959 2.96113L21.0938 4.72258L21.6078 4.84117C21.9933 4.93013 22.398 4.87312 22.7438 4.68114C23.0896 4.48917 23.352 4.17586 23.4804 3.80172L25.6171 3.80477C25.7004 3.80489 25.7829 3.7886 25.8599 3.75684C25.9369 3.72507 26.0069 3.67845 26.0658 3.61963C26.1248 3.56081 26.1716 3.49095 26.2036 3.41404C26.2356 3.33712 26.2521 3.25466 26.2522 3.17137C26.2524 3.06878 26.2277 2.96768 26.1802 2.87675C26.1327 2.78582 26.0638 2.70777 25.9795 2.6493L25.5793 2.37168L25.5837 1.8209C25.5846 1.70271 25.5607 1.58565 25.5134 1.47732C25.4662 1.36898 25.3967 1.2718 25.3094 1.19207C25.1539 1.04955 24.9505 0.970554 24.7396 0.970703Z" fill="#4A4A4A"/>
<path d="M21.9082 5.53805C22.3583 5.53805 22.7231 5.17319 22.7231 4.72312C22.7231 4.27306 22.3583 3.9082 21.9082 3.9082C21.4581 3.9082 21.0933 4.27306 21.0933 4.72312C21.0933 5.17319 21.4581 5.53805 21.9082 5.53805Z" fill="#FFD3B3"/>
<path d="M30.5098 14.3618C30.4009 14.3616 30.2954 14.3236 30.2115 14.2541C30.1275 14.1846 30.0704 14.088 30.05 13.981L29.5606 11.4236C29.5479 11.3627 29.5475 11.2999 29.5594 11.2388C29.5712 11.1778 29.5951 11.1197 29.6296 11.0679C29.6642 11.0162 29.7087 10.9718 29.7605 10.9374C29.8124 10.9031 29.8705 10.8794 29.9316 10.8677C29.9927 10.856 30.0556 10.8566 30.1164 10.8695C30.1773 10.8824 30.235 10.9072 30.2862 10.9426C30.3373 10.978 30.3809 11.0232 30.4144 11.0756C30.448 11.128 30.4707 11.1866 30.4814 11.2479L30.9707 13.8051C30.9836 13.8729 30.9813 13.9428 30.9641 14.0096C30.9469 14.0765 30.9151 14.1387 30.8711 14.1919C30.8271 14.245 30.7719 14.2879 30.7095 14.3173C30.647 14.3467 30.5789 14.362 30.5098 14.3621V14.3618Z" fill="#C18D1C"/>
</svg>
