<svg width="24" height="18" viewBox="0 0 24 18" fill="none" xmlns="http://www.w3.org/2000/svg">
<path d="M0 9.76558L8.21861 17.9999L23.9999 2.23421L21.7342 -0.00012207L8.21861 13.4998L2.23428 7.51552L0 9.76558Z" fill="#FFE613"/>
</svg>
