<?xml version="1.0" encoding="UTF-8"?>
<svg width="400px" height="496px" viewBox="0 0 400 496" version="1.1" xmlns="http://www.w3.org/2000/svg" xmlns:xlink="http://www.w3.org/1999/xlink">
    <!-- Generator: Sketch 53.2 (72643) - https://sketchapp.com -->
    <title>file</title>
    <desc>Created with Sketch.</desc>
    <g id="Phase-3" stroke="none" stroke-width="1" fill="none" fill-rule="evenodd">
        <g id="file" fill-rule="nonzero">
            <path d="M400,112 L320,112 C302.328125,112 288,97.671875 288,80 L288,0 L400,112 Z" id="Path" fill="#534F93"></path>
            <path d="M400,112 L400,464 C400,481.671875 385.671875,496 368,496 L32,496 C14.328125,496 0,481.671875 0,464 L0,32 C0,14.328125 14.328125,0 32,0 L288,0 L288,80 C288,97.671875 302.328125,112 320,112 L400,112 Z" id="Path" fill="#5D59A5"></path>
            <g id="Group" transform="translate(63.000000, 176.000000)" fill="#F1F2F2">
                <path d="M83.34375,93.65625 C86.484375,96.6875 91.472656,96.644531 94.558594,93.558594 C97.644531,90.472656 97.6875,85.484375 94.65625,82.34375 L60.3125,48 L94.65625,13.65625 C97.6875,10.515625 97.644531,5.527344 94.558594,2.441406 C91.472656,-0.644531 86.484375,-0.6875 83.34375,2.34375 L49,36.6875 L14.65625,2.34375 C11.515625,-0.6875 6.527344,-0.644531 3.441406,2.441406 C0.355469,5.527344 0.3125,10.515625 3.34375,13.65625 L37.6875,48 L3.34375,82.34375 C1.265625,84.351562 0.429688,87.328125 1.164062,90.125 C1.894531,92.921875 4.078125,95.105469 6.875,95.835938 C9.671875,96.570312 12.648438,95.734375 14.65625,93.65625 L49,59.3125 L83.34375,93.65625 Z" id="Path"></path>
                <path d="M270.65625,2.34375 C267.53125,-0.777344 262.46875,-0.777344 259.34375,2.34375 L225,36.6875 L190.65625,2.34375 C187.515625,-0.6875 182.527344,-0.644531 179.441406,2.441406 C176.355469,5.527344 176.3125,10.515625 179.34375,13.65625 L213.6875,48 L179.34375,82.34375 C177.265625,84.351562 176.429688,87.328125 177.164062,90.125 C177.894531,92.921875 180.078125,95.105469 182.875,95.835938 C185.671875,96.570312 188.648438,95.734375 190.65625,93.65625 L225,59.3125 L259.34375,93.65625 C262.484375,96.6875 267.472656,96.644531 270.558594,93.558594 C273.644531,90.472656 273.6875,85.484375 270.65625,82.34375 L236.3125,48 L270.65625,13.65625 C273.777344,10.53125 273.777344,5.46875 270.65625,2.34375 L270.65625,2.34375 Z" id="Path"></path>
                <path d="M137,128 C75.171875,128.066406 25.066406,178.171875 25,240 C25,244.417969 28.582031,248 33,248 C37.417969,248 41,244.417969 41,240 C41,186.980469 83.980469,144 137,144 C190.019531,144 233,186.980469 233,240 C233,244.417969 236.582031,248 241,248 C245.417969,248 249,244.417969 249,240 C248.933594,178.171875 198.828125,128.066406 137,128 Z" id="Path"></path>
            </g>
        </g>
    </g>
</svg>