<?xml version="1.0" encoding="UTF-8"?>
<svg width="497px" height="497px" viewBox="0 0 497 497" version="1.1" xmlns="http://www.w3.org/2000/svg" xmlns:xlink="http://www.w3.org/1999/xlink">
    <!-- Generator: Sketch 53.2 (72643) - https://sketchapp.com -->
    <title>question</title>
    <desc>Created with Sketch.</desc>
    <g id="Phase-3" stroke="none" stroke-width="1" fill="none" fill-rule="evenodd">
        <g id="question" fill-rule="nonzero">
            <path d="M496.158,248.085 C496.158,111.063 385.089,0.003 248.083,0.003 C111.07,0.003 0,111.063 0,248.085 C0,385.086 111.07,496.155 248.083,496.155 C385.089,496.155 496.158,385.086 496.158,248.085 Z" id="Path" fill="#D62888"></path>
            <path d="M138.216,173.592 C138.216,159.677 142.683,145.577 151.619,131.295 C160.552,117.013 173.592,105.185 190.73,95.809 C207.869,86.436 227.864,81.747 250.715,81.747 C271.953,81.747 290.705,85.668 306.965,93.502 C323.225,101.34 335.783,111.997 344.648,125.472 C353.509,138.951 357.941,153.597 357.941,169.417 C357.941,181.869 355.414,192.784 350.36,202.156 C345.306,211.532 339.298,219.625 332.342,226.435 C325.383,233.247 312.896,244.71 294.879,260.823 C289.898,265.365 285.904,269.358 282.904,272.799 C279.9,276.242 277.665,279.391 276.202,282.246 C274.736,285.103 273.599,287.959 272.796,290.816 C271.989,293.671 270.781,298.691 269.171,305.867 C266.387,321.103 257.67,328.719 243.024,328.719 C235.406,328.719 228.996,326.23 223.798,321.248 C218.597,316.269 215.998,308.871 215.998,299.056 C215.998,286.751 217.9,276.094 221.711,267.086 C225.519,258.076 230.572,250.166 236.872,243.356 C243.168,236.544 251.666,228.452 262.36,219.076 C271.733,210.874 278.51,204.684 282.685,200.509 C286.86,196.334 290.375,191.686 293.232,186.556 C296.088,181.43 297.517,175.865 297.517,169.857 C297.517,158.139 293.157,148.252 284.443,140.194 C275.726,132.14 264.482,128.109 250.715,128.109 C234.599,128.109 222.734,132.174 215.119,140.304 C207.501,148.434 201.057,160.409 195.783,176.229 C190.802,192.784 181.353,201.058 167.438,201.058 C159.232,201.058 152.311,198.167 146.674,192.379 C141.035,186.593 138.216,180.331 138.216,173.592 Z M245.442,414.412 C236.505,414.412 228.705,411.517 222.041,405.732 C215.374,399.948 212.043,391.855 212.043,381.453 C212.043,372.224 215.263,364.462 221.711,358.162 C228.155,351.865 236.065,348.714 245.441,348.714 C254.67,348.714 262.432,351.865 268.732,358.162 C275.028,364.462 278.18,372.224 278.18,381.453 C278.18,391.708 274.884,399.765 268.292,405.623 C261.7,411.481 254.084,414.412 245.442,414.412 Z" id="Shape" fill="#FFFFFF"></path>
        </g>
    </g>
</svg>